%YAML 1.1
%TAG !u! tag:unity3d.com,2011:
--- !u!114 &11400000
MonoBehaviour:
  m_ObjectHideFlags: 0
  m_CorrespondingSourceObject: {fileID: 0}
  m_PrefabInstance: {fileID: 0}
  m_PrefabAsset: {fileID: 0}
  m_GameObject: {fileID: 0}
  m_Enabled: 1
  m_EditorHideFlags: 0
  m_Script: {fileID: 11500000, guid: 848fb7bbb16da3f4285c796a7972a035, type: 3}
  m_Name: BoatDialogue
  m_EditorClassIdentifier: 
  segments:
  - DialogueText: "\u042F \u0445\u043E\u0447\u0443 \u043F\u043E\u043F\u043B\u0430\u0432\u0430\u0442\u044C,
      \u043D\u043E \u044D\u0442\u0430 \u043B\u043E\u0434\u043A\u0430 \u0441\u043B\u0438\u0448\u043A\u043E\u043C
      \u043C\u0430\u043B\u0430 \u0434\u043B\u044F \u043C\u0435\u043D\u044F..."
    Answers:
    - :(
    SegmentAfterAnswer: ffffffff
