%YAML 1.1
%TAG !u! tag:unity3d.com,2011:
--- !u!114 &11400000
MonoBehaviour:
  m_ObjectHideFlags: 0
  m_CorrespondingSourceObject: {fileID: 0}
  m_PrefabInstance: {fileID: 0}
  m_PrefabAsset: {fileID: 0}
  m_GameObject: {fileID: 0}
  m_Enabled: 1
  m_EditorHideFlags: 0
  m_Script: {fileID: 11500000, guid: 848fb7bbb16da3f4285c796a7972a035, type: 3}
  m_Name: DialogueTrees
  m_EditorClassIdentifier: 
  segments:
  - DialogueText: "\u041F\u0440\u0438\u0432\u0435\u0442, \u044F \u0442\u0443\u0442
      \u0436\u0430\u0440\u044E \u0448\u0430\u0448\u043B\u044B\u043A, \u0445\u043E\u0447\u0435\u0448\u044C
      \u043A\u0443\u0441\u043E\u0447\u0435\u043A?"
    Answers:
    - "\u0414\u0430\u0432\u0430\u0439, \u0441\u043F\u0430\u0441\u0438\u0431\u043E"
    SegmentAfterAnswer: ffffffff
