%YAML 1.1
%TAG !u! tag:unity3d.com,2011:
--- !u!114 &11400000
MonoBehaviour:
  m_ObjectHideFlags: 0
  m_CorrespondingSourceObject: {fileID: 0}
  m_PrefabInstance: {fileID: 0}
  m_PrefabAsset: {fileID: 0}
  m_GameObject: {fileID: 0}
  m_Enabled: 1
  m_EditorHideFlags: 0
  m_Script: {fileID: 11500000, guid: 848fb7bbb16da3f4285c796a7972a035, type: 3}
  m_Name: Dialogue_Selectel
  m_EditorClassIdentifier: 
  segments:
  - DialogueText: "\u041F\u0440\u0438\u0432\u0435\u0442! \u042F \u043F\u0440\u0435\u0434\u0441\u0442\u0430\u0432\u0438\u0442\u0435\u043B\u044C
      \u043A\u043E\u043C\u043F\u0430\u043D\u0438\u0438 Selectel, \u043C\u044B - \u043D\u0430\u0434\u0435\u0436\u043D\u044B\u0439
      \u043F\u0440\u043E\u0432\u0430\u0439\u0434\u0435\u0440 \u0418\u0422-\u0438\u043D\u0444\u0440\u0430\u0441\u0442\u0440\u0443\u043A\u0442\u0443\u0440\u044B!
      \u041D\u0430\u0448\u0438 \u043F\u0440\u043E\u0434\u0443\u043A\u0442\u044B \u2014
      \u0441\u0435\u0440\u0432\u0435\u0440\u044B \u0432 \u0434\u0430\u0442\u0430-\u0446\u0435\u043D\u0442\u0440\u0430\u0445
      \u0438 \u043E\u0431\u043B\u0430\u043A\u0435, \u0433\u0438\u0431\u0440\u0438\u0434\u043D\u044B\u0435
      \u0440\u0435\u0448\u0435\u043D\u0438\u044F, \u043E\u0431\u043B\u0430\u0447\u043D\u043E\u0435
      \u0445\u0440\u0430\u043D\u0438\u043B\u0438\u0449\u0435, \u0438\u043D\u0441\u0442\u0440\u0443\u043C\u0435\u043D\u0442\u044B
      \u0433\u0438\u0431\u043A\u043E\u0433\u043E \u0443\u043F\u0440\u0430\u0432\u043B\u0435\u043D\u0438\u044F
      \u0438\u043D\u0444\u0440\u0430\u0441\u0442\u0440\u0443\u043A\u0442\u0443\u0440\u043E\u0439
      \u0434\u043B\u044F \u0440\u0435\u0448\u0435\u043D\u0438\u044F \u0437\u0430\u0434\u0430\u0447
      \u043B\u044E\u0431\u043E\u0439 \u0441\u043B\u043E\u0436\u043D\u043E\u0441\u0442\u0438!"
    Answers:
    - "\u041A\u0430\u043A\u0438\u0435 \u0432\u0430\u043A\u0430\u043D\u0441\u0438\u0438
      \u043F\u0440\u0435\u0434\u043B\u0430\u0433\u0430\u0435\u0442\u0435?"
    - "\u041A\u0430\u043A\u0438\u0435 \u043F\u043B\u044E\u0441\u044B \u0440\u0430\u0431\u043E\u0442\u044B
      \u0441 \u0432\u0430\u043C\u0438?"
    - "\u0412\u044B\u0445\u043E\u0434"
    SegmentAfterAnswer: 0100000002000000ffffffff
  - DialogueText: "\u0423 \u043D\u0430\u0441 \u0435\u0441\u0442\u044C \u043D\u0435\u0441\u043A\u043E\u043B\u044C\u043A\u043E
      \u0440\u0430\u0437\u043D\u044B\u0445 \u043D\u0430\u043F\u0440\u0430\u0432\u043B\u0435\u043D\u0438\u0439!
      \u0412\u0441\u0435 \u0437\u0430\u0432\u0438\u0441\u0438\u0442 \u043E\u0442
      \u0442\u043E\u0433\u043E, \u0447\u0442\u043E \u0442\u0435\u0431\u044F \u0438\u043D\u0442\u0435\u0440\u0435\u0441\u0443\u0435\u0442. "
    Answers:
    - "\u0421\u0438\u0441\u0442\u0435\u043C\u043D\u043E\u0435 \u0430\u0434\u043C\u0438\u043D\u0438\u0441\u0442\u0440\u0438\u0440\u043E\u0432\u0430\u043D\u0438\u0435"
    - "Frontend-\u0440\u0430\u0437\u0440\u0430\u0431\u043E\u0442\u043A\u0430"
    - "UX-\u043F\u0440\u043E\u0435\u043A\u0442\u0438\u0440\u043E\u0432\u0430\u043D\u0438\u0435"
    - "\u0412\u044B\u0445\u043E\u0434"
    SegmentAfterAnswer: 03000000080000000a000000ffffffff
  - DialogueText: "\u041C\u044B \u043F\u0440\u0435\u0434\u043B\u0430\u0433\u0430\u0435\u043C
      \u0431\u0435\u043B\u0443\u044E \u0437\u0430\u0440\u043F\u043B\u0430\u0442\u0443,
      \u0414\u041C\u0421, \u0440\u0430\u0437\u043B\u0438\u0447\u043D\u044B\u0435
      \u043A\u043E\u043C\u043F\u0435\u043D\u0441\u0430\u0446\u0438\u0438 \u043D\u0430
      \u043E\u0431\u0443\u0447\u0435\u043D\u0438\u0435, \u0430 \u0442\u0430\u043A\u0436\u0435
      \u0440\u0435\u0433\u0443\u043B\u044F\u0440\u043D\u044B\u0435 \u0440\u0430\u0437\u0432\u043B\u0435\u043A\u0430\u0442\u0435\u043B\u044C\u043D\u044B\u0435
      \u043C\u0435\u0440\u043E\u043F\u0440\u0438\u044F\u0442\u0438\u044F!"
    Answers:
    - "\u041A\u0430\u043A\u0438\u0435 \u0435\u0441\u0442\u044C \u0432\u0430\u043A\u0430\u043D\u0441\u0438\u0438?"
    - "\u0412\u044B\u0445\u043E\u0434"
    SegmentAfterAnswer: 01000000ffffffff
  - DialogueText: "\u0422\u0443\u0442 \u0443 \u043D\u0430\u0441 \u0435\u0441\u0442\u044C
      \u0434\u0432\u0430 \u043E\u0441\u043D\u043E\u0432\u043D\u044B\u0445 \u043D\u0430\u043F\u0440\u0430\u0432\u043B\u0435\u043D\u0438\u044F
      - \u0438\u043D\u0436\u0435\u043D\u0435\u0440 \u0441\u0431\u043E\u0440\u043A\u0438
      \u0438 \u043E\u0431\u0441\u043B\u0443\u0436\u0438\u0432\u0430\u043D\u0438\u044F
      \u0441\u0438\u0441\u0442\u0435\u043C\u043D\u043E\u0433\u043E \u043E\u0431\u043E\u0440\u0443\u0434\u043E\u0432\u0430\u043D\u0438\u044F
      \u0438 \u0441\u0438\u0441\u0442\u0435\u043C\u043D\u044B\u0439 \u0430\u0434\u043C\u0438\u043D\u0438\u0441\u0442\u0440\u0430\u0442\u043E\u0440
      \u043F\u043B\u0430\u0442\u0444\u043E\u0440\u043C\u0435\u043D\u043D\u044B\u0445
      \u0441\u0435\u0440\u0432\u0438\u0441\u043E\u0432. \u0427\u0442\u043E \u0431\u043E\u043B\u044C\u0448\u0435
      \u0438\u043D\u0442\u0435\u0440\u0435\u0441\u0443\u0435\u0442?"
    Answers:
    - "\u0418\u043D\u0436\u0435\u043D\u0435\u0440 \u0441\u0435\u0440\u0432\u0435\u0440\u043D\u043E\u0433\u043E
      \u043E\u0431\u043E\u0440\u0443\u0434\u043E\u0432\u0430\u043D\u0438\u044F"
    - "\u0421\u0438\u0441\u0442\u0435\u043C\u043D\u044B\u0439 \u0430\u0434\u043C\u0438\u043D\u0438\u0441\u0442\u0440\u0430\u0442\u043E\u0440"
    - "\u0410 \u043C\u043E\u0436\u043D\u043E \u0435\u0449\u0435 \u0432\u0430\u043A\u0430\u043D\u0441\u0438\u0438
      \u0433\u043B\u044F\u043D\u0443\u0442\u044C?"
    - "\u0412\u044B\u0445\u043E\u0434"
    SegmentAfterAnswer: 04000000ffffffff01000000ffffffff
  - DialogueText: "\u041E\u0442\u043B\u0438\u0447\u043D\u044B\u0439 \u0432\u044B\u0431\u043E\u0440!
      \u0422\u0443\u0442 \u0442\u0435\u0431\u0435 \u043F\u0440\u0435\u0434\u0441\u0442\u043E\u0438\u0442
      \u0437\u0430\u043D\u0438\u043C\u0430\u0442\u044C\u0441\u044F \u0441\u0431\u043E\u0440\u043A\u043E\u0439
      \u0438 \u0443\u0447\u0435\u0442\u043E\u043C \u0441\u0435\u0440\u0432\u0435\u0440\u043D\u043E\u0433\u043E
      \u043E\u0431\u043E\u0440\u0443\u0434\u043E\u0432\u0430\u043D\u0438\u044F! \u041E\u0442
      \u0441\u043E\u0438\u0441\u043A\u0430\u0442\u0435\u043B\u044F \u0436\u0435 \u043C\u044B
      \u043E\u0436\u0438\u0434\u0430\u0435\u043C \u0443\u043C\u0435\u043D\u0438\u0435
      \u0440\u0430\u0431\u043E\u0442\u0430\u0442\u044C \u0441 \u0441\u0435\u0440\u0432\u0435\u0440\u043D\u044B\u043C
      \u043E\u0431\u043E\u0440\u0443\u0434\u043E\u0432\u0430\u043D\u0438\u0435\u043C,
      \u043F\u043E\u043D\u0438\u043C\u0430\u043D\u0438\u0435 \u0440\u0430\u0431\u043E\u0442\u044B
      \u0441 \u043A\u043E\u043C\u0430\u043D\u0434\u043D\u043E\u0439 \u043A\u043E\u043D\u0441\u043E\u043B\u044C\u044E,
      \u0430 \u0442\u0430\u043A\u0436\u0435 \u0437\u043D\u0430\u043D\u0438\u0435
      \u0430\u043D\u0433\u043B\u0438\u0439\u0441\u043A\u043E\u0433\u043E \u0434\u043B\u044F
      \u0447\u0442\u0435\u043D\u0438\u044F \u0434\u043E\u043A\u0443\u043C\u0435\u043D\u0442\u0430\u0446\u0438\u0438!"
    Answers:
    - "\u0410 \u043A\u0430\u043A \u0441 \u0432\u0430\u043C\u0438 \u0441\u0432\u044F\u0437\u0430\u0442\u044C\u0441\u044F?"
    - "\u0422\u0430\u043A\u043E\u043C\u0443 \u043C\u043E\u0436\u043D\u043E \u043D\u0430\u0443\u0447\u0438\u0442\u044C\u0441\u044F?"
    - "\u0425\u043E\u0447\u0443 \u0435\u0449\u0435 \u0432\u0430\u043A\u0430\u043D\u0441\u0438\u0439"
    - "\u0412\u044B\u0445\u043E\u0434"
    SegmentAfterAnswer: 050000000600000001000000ffffffff
  - DialogueText: "\u0421\u0432\u044F\u0437\u0430\u0442\u044C\u0441\u044F \u0441
      \u043D\u0430\u043C\u0438 \u043C\u043E\u0436\u043D\u043E, \u043D\u0430\u043F\u0438\u0441\u0430\u0432
      \u043D\u0430\u043C \u043D\u0430 \u043F\u043E\u0447\u0442\u0443 hr@selectel.ru.
      \u041B\u0438\u0431\u043E \u0436\u0435 \u0442\u044B \u043C\u043E\u0436\u0435\u0448\u044C
      \u043F\u0440\u0438\u0439\u0442\u0438 \u043D\u0430 \u044F\u0440\u043C\u0430\u0440\u043A\u0443
      \u0432\u0430\u043A\u0430\u043D\u0441\u0438\u0439 \u041C\u043E\u0441\u043A\u043E\u0432\u0441\u043A\u043E\u0433\u043E
      \u043F\u043E\u043B\u0438\u0442\u0435\u0445\u0430, \u043A\u043E\u0442\u043E\u0440\u0430\u044F
      \u0441\u0435\u0439\u0447\u0430\u0441 \u043F\u0440\u043E\u0445\u043E\u0434\u0438\u0442
      \u043F\u043E \u0430\u0434\u0440\u0435\u0441\u0443: \u041C\u043E\u0441\u043A\u0432\u0430,
      \u0443\u043B. \u0411\u043E\u043B\u044C\u0448\u0430\u044F \u0421\u0435\u043C\u0435\u043D\u043E\u0432\u0441\u043A\u0430\u044F,
      38 \u041D"
    Answers:
    - "\u0415\u0449\u0435 \u0432\u0430\u043A\u0430\u043D\u0441\u0438\u0438"
    - "\u0412\u044B\u0445\u043E\u0434"
    SegmentAfterAnswer: 01000000ffffffff
  - DialogueText: "\u041A\u043E\u043D\u0435\u0447\u043D\u043E! \u0415\u0441\u043B\u0438
      \u0442\u0435\u0431\u044F \u0438\u043D\u0442\u0435\u0440\u0435\u0441\u0443\u0435\u0442
      \u0432\u044B\u0441\u0448\u0435\u0435 \u043E\u0431\u0440\u0430\u0437\u043E\u0432\u0430\u043D\u0438\u0435
      \u0432 \u044D\u0442\u043E\u0439 \u0441\u0444\u0435\u0440\u0435, \u0442\u043E
      \u043C\u043E\u0436\u0435\u0448\u044C \u043E\u0446\u0435\u043D\u0438\u0442\u044C
      \u043F\u0440\u043E\u0433\u0440\u0430\u043C\u043C\u044B \u0431\u0430\u043A\u0430\u043B\u0430\u0432\u0440\u0438\u0430\u0442\u0430
      \u043F\u043E \u0412\u0435\u0431-\u0440\u0430\u0437\u0430\u0440\u0431\u043E\u0442\u043A\u0435
      \u0438\u043B\u0438 \u0418\u043D\u0444\u043E\u0440\u043C\u0430\u0446\u0438\u043E\u043D\u043D\u043E\u0439
      \u0431\u0435\u0437\u043E\u043F\u0430\u0441\u043D\u043E\u0441\u0442\u0438 \u0432
      \u041C\u043E\u0441\u043A\u043E\u0432\u0441\u043A\u043E\u043C \u043F\u043E\u043B\u0438\u0442\u0435\u0445\u0435,
      \u0442\u0430\u043C \u043E\u0442\u043B\u0438\u0447\u043D\u044B\u0435 \u0441\u043E\u0432\u0440\u0435\u043C\u0435\u043D\u043D\u044B\u0435
      \u043F\u0440\u043E\u0433\u0440\u0430\u043C\u043C\u044B! \u0415\u0441\u043B\u0438
      \u0436\u0435 \u043D\u0443\u0436\u043D\u044B \u043E\u0442\u0434\u0435\u043B\u044C\u043D\u044B\u0435
      \u043A\u0443\u0440\u0441\u044B, \u0442\u043E \u0443 \u041F\u043E\u043B\u0438\u0442\u0435\u0445\u0430
      \u0435\u0441\u0442\u044C \u0442\u0430\u043A\u0436\u0435 \u043E\u0442\u043B\u0438\u0447\u043D\u044B\u0435
      \u043F\u0440\u043E\u0433\u0440\u0430\u043C\u043C\u044B!"
    Answers:
    - "\u0415\u0449\u0435 \u0432\u0430\u043A\u0430\u043D\u0441\u0438\u0438"
    - "\u0412\u044B\u0445\u043E\u0434"
    SegmentAfterAnswer: 01000000ffffffff
  - DialogueText: "\u041E\u0442\u043B\u0438\u0447\u043D\u044B\u0439 \u0432\u044B\u0431\u043E\u0440!
      \u0417\u0434\u0435\u0441\u044C \u0442\u0435\u0431\u0435 \u043F\u0440\u0435\u0434\u0441\u0442\u043E\u0438\u0442
      \u0430\u0434\u043C\u0438\u043D\u0438\u0441\u0442\u0440\u0438\u0440\u043E\u0432\u0430\u0442\u044C
      \u043D\u0430\u0448\u0438 \u0441\u0435\u0440\u0432\u0438\u0441\u044B, \u0437\u0430\u043D\u0438\u043C\u0430\u0442\u044C\u0441\u044F
      \u043E\u0442\u043B\u0430\u0434\u043A\u043E\u0439 \u0430\u0440\u0445\u0438\u0442\u0435\u043A\u0442\u0443\u0440\u044B
      \u0438 \u043F\u043E\u0438\u0441\u043A\u043E\u043C \u0441\u0438\u0441\u0442\u0435\u043C\u043D\u044B\u0445
      \u0440\u0435\u0448\u0435\u043D\u0438\u0439! \u041E\u0442 \u0441\u043E\u0438\u0441\u043A\u0430\u0442\u0435\u043B\u044F
      \u043C\u044B \u0436\u0434\u0435\u043C \u043E\u043F\u044B\u0442\u0430 \u0440\u0430\u0431\u043E\u0442\u044B
      \u0441 \u0411\u0414, \u0437\u043D\u0430\u043D\u0438\u044F Git, \u0443\u043C\u0435\u043D\u0438\u044F
      \u043F\u043E\u043B\u044C\u0437\u043E\u0432\u0430\u0442\u044C\u0441\u044F Linux
      OC!"
    Answers:
    - "\u0410 \u043A\u0430\u043A \u0441 \u0432\u0430\u043C\u0438 \u0441\u0432\u044F\u0437\u0430\u0442\u044C\u0441\u044F?"
    - "\u0422\u0430\u043A\u043E\u043C\u0443 \u043C\u043E\u0436\u043D\u043E \u043D\u0430\u0443\u0447\u0438\u0442\u044C\u0441\u044F?"
    - "\u0425\u043E\u0447\u0443 \u0435\u0449\u0435 \u0432\u0430\u043A\u0430\u043D\u0441\u0438\u0439"
    - "\u0412\u044B\u0445\u043E\u0434"
    SegmentAfterAnswer: 050000000600000001000000ffffffff
  - DialogueText: "\u041E\u0442\u043B\u0438\u0447\u043D\u044B\u0439 \u0432\u044B\u0431\u043E\u0440!
      \u0423 \u043D\u0430\u0441 \u0437\u0434\u0435\u0441\u044C \u043E\u0442\u043A\u0440\u044B\u0442\u043E
      \u0441\u0440\u0430\u0437\u0443 \u043D\u0435\u0441\u043A\u043E\u043B\u044C\u043A\u043E
      \u043F\u043E\u0437\u0438\u0446\u0438\u0439, \u043D\u043E \u0442\u0440\u0435\u0431\u043E\u0432\u0430\u043D\u0438\u044F
      \u0434\u043B\u044F \u0432\u0441\u0435\u0445 \u043E\u0431\u0449\u0438\u0435
      - \u0437\u043D\u0430\u043D\u0438\u0435 HTML \u0438 CSS, \u0437\u043D\u0430\u043D\u0438\u0435
      JavaScript, \u043E\u043F\u044B\u0442 \u0440\u0430\u0431\u043E\u0442\u044B \u0441
      Angular, \u0430 \u0442\u0430\u043A\u0436\u0435 \u0437\u043D\u0430\u043D\u0438\u0435
      \u0438 \u0443\u043C\u0435\u043D\u0438\u044F \u043F\u043E\u043B\u044C\u0437\u043E\u0432\u0430\u0442\u044C\u0441\u044F
      Git."
    Answers:
    - "\u0410 \u043A\u0430\u043A \u0441 \u0432\u0430\u043C\u0438 \u0441\u0432\u044F\u0437\u0430\u0442\u044C\u0441\u044F?"
    - "\u0422\u0430\u043A\u043E\u043C\u0443 \u043C\u043E\u0436\u043D\u043E \u043D\u0430\u0443\u0447\u0438\u0442\u044C\u0441\u044F?"
    - "\u0425\u043E\u0447\u0443 \u0435\u0449\u0435 \u0432\u0430\u043A\u0430\u043D\u0441\u0438\u0439"
    - "\u0412\u044B\u0445\u043E\u0434"
    SegmentAfterAnswer: 050000000900000001000000ffffffff
  - DialogueText: "\u0415\u0441\u043B\u0438 \u0442\u0435\u0431\u044F \u0438\u043D\u0442\u0435\u0440\u0435\u0441\u0443\u0435\u0442
      \u0432\u0435\u0431-\u0440\u0430\u0437\u0440\u0430\u0431\u043E\u0442\u043A\u0430,
      \u0442\u043E \u043E\u0442\u043B\u0438\u0447\u043D\u044B\u043C \u0432\u044B\u0431\u043E\u0440\u043E\u043C
      \u0431\u0443\u0434\u0435\u0442 \u043F\u0440\u043E\u0433\u0440\u0430\u043C\u043C\u0430
      \u0431\u0430\u043A\u0430\u043B\u0430\u0432\u0440\u0438\u0430\u0442\u0430 \u043E\u0442
      \u041C\u043E\u0441\u043A\u043E\u0432\u0441\u043A\u043E\u0433\u043E \u043F\u043E\u043B\u0438\u0442\u0435\u0445\u0430
      \u043F\u043E \u044D\u0442\u043E\u0439 \u0441\u043F\u0435\u0446\u0438\u0430\u043B\u044C\u043D\u043E\u0441\u0442\u0438!
      \u0422\u0430\u043C \u043A\u0430\u043A \u0440\u0430\u0437 \u0438\u0434\u0435\u0442
      \u0443\u043F\u043E\u0440 \u043D\u0430 \u043F\u0440\u0430\u043A\u0442\u0438\u0447\u0435\u0441\u043A\u043E\u0435
      \u043E\u0431\u0443\u0447\u0435\u043D\u0438\u0435, \u0442\u0430\u043A \u0447\u0442\u043E
      \u0442\u044B \u043E\u0447\u0435\u043D\u044C \u0431\u044B\u0441\u0442\u0440\u043E
      \u043F\u0440\u043E\u043A\u0430\u0447\u0430\u0435\u0448\u044C\u0441\u044F!"
    Answers:
    - "\u0415\u0449\u0435 \u0432\u0430\u043A\u0430\u043D\u0441\u0438\u0438"
    - "\u0412\u044B\u0445\u043E\u0434"
    SegmentAfterAnswer: 01000000ffffffff
  - DialogueText: "\u041E\u0442\u043B\u0438\u0447\u043D\u044B\u0439 \u0432\u044B\u0431\u043E\u0440!
      \u0417\u0434\u0435\u0441\u044C \u0442\u0435\u0431\u0435 \u043F\u0440\u0435\u0434\u0441\u0442\u043E\u0438\u0442
      \u0437\u0430\u043D\u0438\u043C\u0430\u0442\u044C\u0441\u044F \u0440\u0430\u0437\u0440\u0430\u0431\u043E\u0442\u043A\u043E\u0439
      \u043F\u043E\u043B\u044C\u0437\u043E\u0432\u0430\u0442\u0435\u043B\u044C\u0441\u043A\u043E\u0433\u043E
      \u0438\u043D\u0442\u0435\u0440\u0444\u0435\u0439\u0441\u0430 \u0434\u043B\u044F
      \u043D\u0430\u0448\u0438\u0445 \u0441\u0438\u0441\u0442\u0435\u043C \u0438
      \u043F\u0440\u043E\u0434\u0443\u043A\u0442\u043E\u0432. \u041E\u0442 \u043A\u0430\u043D\u0434\u0438\u0434\u0430\u0442\u0430
      \u043C\u044B \u043E\u0436\u0438\u0434\u0430\u0435\u043C \u0443\u043C\u0435\u043D\u0438\u044F
      \u0441\u043E\u0437\u0434\u0430\u0432\u0430\u0442\u044C \u043F\u043E\u043B\u044C\u0437\u043E\u0432\u0430\u0442\u0435\u043B\u044C\u0441\u043A\u0438\u0435
      \u0438\u0441\u0442\u043E\u0440\u0438\u0438, \u043F\u043E\u043D\u0438\u043C\u0430\u043D\u0438\u0435
      \u0441\u0438\u0441\u0442\u0435\u043C\u043D\u043E\u0433\u043E \u043F\u043E\u0434\u0445\u043E\u0434\u0430
      \u0438 \u0441\u043F\u043E\u0441\u043E\u0431\u043D\u043E\u0441\u0442\u0438 \u0440\u0430\u0437\u0440\u0435\u0448\u0430\u0442\u044C
      \u043F\u0440\u043E\u0442\u0438\u0432\u043E\u0440\u0435\u0447\u0438\u044F!"
    Answers:
    - "\u0410 \u043A\u0430\u043A \u0441 \u0432\u0430\u043C\u0438 \u0441\u0432\u044F\u0437\u0430\u0442\u044C\u0441\u044F?"
    - "\u0422\u0430\u043A\u043E\u043C\u0443 \u043C\u043E\u0436\u043D\u043E \u043D\u0430\u0443\u0447\u0438\u0442\u044C\u0441\u044F?"
    - "\u0425\u043E\u0447\u0443 \u0435\u0449\u0435 \u0432\u0430\u043A\u0430\u043D\u0441\u0438\u0439"
    - "\u0412\u044B\u0445\u043E\u0434"
    SegmentAfterAnswer: 050000000b00000001000000ffffffff
  - DialogueText: "\u0415\u0441\u043B\u0438 \u0442\u0435\u0431\u044F \u0438\u043D\u0442\u0435\u0440\u0435\u0441\u0443\u0435\u0442
      \u0434\u0438\u0437\u0430\u0439\u043D \u0438 \u0440\u0430\u0437\u0440\u0430\u0431\u043E\u0442\u043A\u0430
      \u043F\u043E\u043B\u044C\u0437\u043E\u0432\u0430\u0442\u0435\u043B\u044C\u0441\u043A\u0438\u0445
      \u0438\u043D\u0442\u0435\u0440\u0444\u0435\u0439\u0441\u043E\u0432, \u0442\u043E
      \u043E\u0431\u0440\u0430\u0442\u0438 \u0432\u043D\u0438\u043C\u0430\u043D\u0438\u0435
      \u043D\u0430 \u043D\u0430\u043F\u0440\u0430\u0432\u043B\u0435\u043D\u0438\u0435
      \u0412\u0435\u0431-\u0440\u0430\u0437\u0440\u0430\u0431\u043E\u0442\u043A\u0438
      \u043E\u0442 \u041C\u043E\u0441\u043A\u043E\u0432\u0441\u043A\u043E\u0433\u043E
      \u043F\u043E\u043B\u0438\u0442\u0435\u0445\u0430! \u0422\u0443\u0442 \u043A\u0430\u043A
      \u0440\u0430\u0437 \u043D\u0435\u043C\u0430\u043B\u044B\u0439 \u0443\u043F\u043E\u0440
      \u0434\u0435\u043B\u0430\u0435\u0442\u0441\u044F \u043D\u0430 \u043E\u0431\u0443\u0447\u0435\u043D\u0438\u0435
      \u0440\u0430\u0437\u0440\u0430\u0431\u043E\u0442\u043A\u0438 \u0440\u0430\u0437\u043B\u0438\u0447\u043D\u044B\u0445
      UML-\u0434\u0438\u0430\u0433\u0440\u0430\u043C \u0438 \u0434\u0438\u0437\u0430\u0439\u043D
      \u0438\u043D\u0442\u0435\u0440\u0444\u0435\u0439\u0441\u0430!"
    Answers:
    - "\u0415\u0449\u0435 \u0432\u0430\u043A\u0430\u043D\u0441\u0438\u0438"
    - "\u0412\u044B\u0445\u043E\u0434"
    SegmentAfterAnswer: 01000000ffffffff
